<svg xmlns="http://www.w3.org/2000/svg" width="50" height="50" viewBox="0 0 50 50">
    <g id="prefix__target">
        <path id="prefix__Path_512" fill="#cee1f2" d="M45.065 53.972a10.241 10.241 0 0 1-2.9.417 11.041 11.041 0 0 1-10.8-11.267 11.041 11.041 0 0 1 10.8-11.267 10.241 10.241 0 0 1 2.9.417 11.41 11.41 0 0 0 0 21.7zm-19.43-10.85c0-11.774 8.435-21.493 19.345-22.937A21.45 21.45 0 0 0 42.162 20C29.922 20 20 30.352 20 43.122s9.922 23.122 22.162 23.122a21.466 21.466 0 0 0 2.817-.185C34.07 64.615 25.634 54.9 25.634 43.122z" data-name="Path 512" transform="translate(-18.122 -18.122)"/>
        <path id="prefix__Path_513" fill="#3d59d9" d="M25.09 50a25 25 0 1 1 0-50A25.255 25.255 0 0 1 45.5 10.38a1.958 1.958 0 0 1-3.179 2.287A21.221 21.221 0 0 0 3.92 25a21.221 21.221 0 0 0 38.4 12.333 1.958 1.958 0 0 1 3.18 2.287A25.255 25.255 0 0 1 25.09 50zm9.445-15.829a1.957 1.957 0 0 0-2.816-2.718 9.183 9.183 0 0 1-6.629 2.824 9.277 9.277 0 1 1 0-18.555 9.183 9.183 0 0 1 6.629 2.824 1.957 1.957 0 0 0 2.816-2.718 13.078 13.078 0 0 0-9.445-4.012 13.184 13.184 0 1 0 0 26.367 13.078 13.078 0 0 0 9.445-4.012z" data-name="Path 513"/>
        <path id="prefix__Path_514" fill="#ffa705" d="M259.146 187.234a2.688 2.688 0 0 1 0-3.82l2.218-2.2a1.878 1.878 0 0 0-2.648-2.664l-2.218 2.2a6.425 6.425 0 0 0-1.628 2.7h-16.992a1.878 1.878 0 1 0 0 3.756h16.992a6.425 6.425 0 0 0 1.628 2.7l2.218 2.2a1.878 1.878 0 0 0 2.648-2.664z" data-name="Path 514" transform="translate(-211.918 -160.324)"/>
    </g>
</svg>
