<svg xmlns="http://www.w3.org/2000/svg" id="prefix__shapes-and-symbols" width="20" height="20" viewBox="0 0 20 20">
    <g id="prefix__Group_431" data-name="Group 431">
        <path id="prefix__Path_433" fill="#b2b7d1" d="M19.878 18.7l-5.81-5.81a7.932 7.932 0 1 0-1.178 1.178l5.81 5.81a.417.417 0 0 0 .589 0l.589-.589a.417.417 0 0 0 0-.589zM7.917 14.167a6.25 6.25 0 1 1 6.25-6.25 6.257 6.257 0 0 1-6.25 6.25z" data-name="Path 433"/>
    </g>
</svg>
