<svg xmlns="http://www.w3.org/2000/svg" width="20.004" height="19.997" viewBox="0 0 20.004 19.997">
    <path id="prefix__Path_455" fill="#303030" d="M23267.641 16166a.894.894 0 0 1-.91-.877.9.9 0 0 0-.912-.876h-.906a.894.894 0 0 1-.912-.871v-8.754a.894.894 0 0 1 .912-.87h.906a.9.9 0 0 0 .912-.877.894.894 0 0 1 .91-.876h4.359v-2h5v2h3.361a.894.894 0 0 1 .91.876.9.9 0 0 0 .912.877h.906a.894.894 0 0 1 .912.87v8.754a.894.894 0 0 1-.912.871h-.906a.9.9 0 0 0-.912.876.894.894 0 0 1-.91.877zm10.9-1.753h1.064a2.736 2.736 0 0 1 2.576-1.747v-7a2.736 2.736 0 0 1-2.576-1.747h-1.064zm-7.27 0h5.453v-10.5h-5.453zm-5.457-8.748v7a2.736 2.736 0 0 1 2.576 1.747h1.064v-10.5h-1.064a2.736 2.736 0 0 1-2.572 1.754zm2.186-7.5v-2h13v2z" data-name="Path 455" transform="translate(-23264 -16146.002)"/>
</svg>
